…
```r
sheetz <- readRDS("data/sheetz/sheetz.rds")
```


```r
wawa <- readRDS("data/wawa/wawa.rds")
wawa
```

```
# A tibble: 289 x 29
   locationID storeName openType areaManager regionalDirector telephone
   <chr>      <chr>     <chr>    <chr>       <chr>            <chr>    
 1 00007      WAWA, ST… 24hours  MAGEE, JAM… MAIOLINO, MARC   484-451-…
 2 00008      WAWA, ST… 24hours  CASEY, CHR… MAIOLINO, MARC   610-356-…
 3 00009      WAWA, ST… 24hours  CONLAN, SA… MAIOLINO, MARC   610-623-…
 4 00011      WAWA, ST… 24hours  CONLAN, SA… MAIOLINO, MARC   610-259-…
 5 00012      WAWA, ST… 24hours  CASEY, CHR… MAIOLINO, MARC   610-623-…
 6 00014      WAWA, ST… 24hours  CASEY, CHR… MAIOLINO, MARC   610-446-…
 7 00021      WAWA, ST… 24hours  SCHWARTZ, … DEPAOLO, GINA    215-233-…
 8 00023      WAWA, ST… 24hours  CONLAN, SA… MAIOLINO, MARC   610-237-…
 9 00025      WAWA, ST… 24hours  OHARA, TIM  MAIOLINO, MARC   610-696-…
10 00030      WAWA, ST… 24hours  MAGEE, JAM… MAIOLINO, MARC   484 893-…
# … with 279 more rows, and 23 more variables: isActive <chr>,
#   storeOpen <chr>, storeClose <chr>, open24Hours <chr>,
#   storeNumber <chr>, lastUpdated <chr>, amenities.food <chr>,
#   amenities.fuel <chr>, amenities.restrooms <chr>,
#   amenities.ethanolFreeGas <chr>, amenities.teslaChargingStation <chr>,
#   addresses.context <chr>, addresses.address <chr>,
#   addresses.city <chr>, addresses.state <chr>, addresses.zip <chr>,
#   addresses.loc1 <chr>, addresses.loc2 <chr>, hasMenu <chr>,
#   addressUrl <chr>, fuelTypes.description <chr>, fuelTypes.price <chr>,
…
